…
202

This is the same information in bar chart form for easier visualization.

Interestingly, women are more likely to appear on the plaintiff side than are men. This is not a significant difference and may not reflect anything meaningful, but it’s an interesting side note.

Transaction Type Gender Breakdown

I coded for five rough types of transactions that give rise to the dispute being litigated. See the “Data Collection and Dataset” tab for an explanation of the types.

I list in descending order of gender equity.

## # A tibble: 37 x 10
##     page  year transaction name   typenomf typemf spouse side  cite   simplecite
##    <dbl> <dbl> <chr>       <chr>  <chr>    <chr>  <chr>  <chr> <chr>  <chr>     
##  1    47  1954 Property    Loner… Man      Man    N      π     Loner… Lonergan …
##  2    51  1985 Property    Micha… Man      Man    N      π     Normi… Normile v…
##  3    51  1985 Property    Glady… Woman    Woman  N      π     Normi… Normile v…
##  4   227  1845 Property    Antil… Woman    Woman  Y      π     Kirks… Kirksey v…
##  5   228  2008 Property    Teres… Woman    Woman  Y      π     Harve… Harvey v.…
##  6   228  2008 Property    Jarro… Man      Man    Y      π     Harve… Harvey v.…
##  7   237  1995 Property    Coret… Woman    Woman  Y      π     King … King v. T…
##  8   266  1977 Property    Wade … Man      Man    N      π     Berry… Berryman …
##  9   357  2010 Property    Warre… Man      Man    Y      π     Beave… Beaver v.…
## 10   357  2010 Property    Betty… Woman    Woman  Y      π     Beave… Beaver v.…
## # … with 27 more rows
